{
    "relationships": [
        {
            "relationshipName": "user",
            "otherEntityName": "user",
            "relationshipType": "one-to-one",
            "ownerSide": false,
            "otherEntityRelationshipName": "userDashboard"
        },
        {
            "relationshipName": "moduleBounds",
            "otherEntityName": "moduleBounds",
            "relationshipType": "one-to-many",
            "otherEntityRelationshipName": "userDashboard"
        }
    ],
    "fields": [
        {
            "fieldName": "name",
            "fieldType": "String"
        },
        {
            "fieldName": "columns",
            "fieldType": "Integer"
        }
    ],
    "changelogDate": "20160502231838",
    "dto": "mapstruct",
    "service": "no",
    "entityTableName": "user_dashboard",
    "pagination": "infinite-scroll"
}
